Lecture 5
…
---

## Mutation in Tidyverse
- ading new or changing existing columns

```r
econ %>%
    mutate(region = ifelse(name == "Afghanistan", "Afghan", "Others"),
           tfp = NULL)
```

```
## # A tibble: 1,452 x 7
##    name       year gdp_cap energy_productivi~ population labor_force region
##    <chr>     <dbl>   <dbl>              <dbl>      <dbl>       <dbl> <chr> 
##  1 Afghanis~  1980    974.              1467.     13180.       4115. Afghan
##  2 Afghanis~  1981   1018.              1321.     12964.       4025. Afghan
##  3 Afghanis~  1982   1053.              1291.     12634.       3905. Afghan
##  4 Afghanis~  1983   1140.              1143.     12242.       3769. Afghan
##  5 Afghanis~  1984   1199.              1176.     11854.       3636. Afghan
##  6 Afghanis~  1985   1236.              1221.     11529.       3517. Afghan
##  7 Afghanis~  1986   1303.              1437.     11262.       3428. Afghan
##  8 Afghanis~  1987   1190.               663.     11063.       3369  Afghan
##  9 Afghanis~  1988   1097.               310.     11013.       3356. Afghan
## 10 Afghanis~  1989   1001.               275.     11215.       3410. Afghan
## # ... with 1,442 more rows
```
…
---

## Aggregation on multi-index

```r
econ %>% 
    group_by(region, year) %>% 
    summarise(pop = mean(population),
              labor = mean(labor_force)) %>% 
    ungroup() %>% 
    mutate(active = labor / pop) 
```

```
## # A tibble: 242 x 5
##    region  year    pop labor active
##    <chr>  <dbl>  <dbl> <dbl>  <dbl>
##  1 Afghan  1980 13180. 4115.  0.312
##  2 Afghan  1981 12964. 4025.  0.311
##  3 Afghan  1982 12634. 3905.  0.309
##  4 Afghan  1983 12242. 3769.  0.308
##  5 Afghan  1984 11854. 3636.  0.307
##  6 Afghan  1985 11529. 3517.  0.305
##  7 Afghan  1986 11262. 3428.  0.304
##  8 Afghan  1987 11063. 3369   0.305
##  9 Afghan  1988 11013. 3356.  0.305
## 10 Afghan  1989 11215. 3410.  0.304
## # ... with 232 more rows
```
